Master en Big Data. Fundamentos Matemáticos del Análisis de Datos (FMAD).
…
## 
## ℹ Use `spec()` to retrieve the full column specification for this data.
## ℹ Specify the column types or set `show_col_types = FALSE` to quiet this message.

testResultsTidy <- testResults %>%
  separate(gender_age, c("Gender", "Age"), sep = "_", convert = TRUE)
testResultsTidy <- testResultsTidy %>%
  pivot_longer(week1:week5, names_to="Week", names_prefix = "week")
testResultsTidy

## # A tibble: 1,000 × 7
##    name     id Gender   Age test_number Week  value
##    <chr> <dbl> <chr>  <int>       <dbl> <chr> <dbl>
##  1 Jacob   108 m         20           1 1         8
##  2 Jacob   108 m         20           1 2         5
##  3 Jacob   108 m         20           1 3         7
##  4 Jacob   108 m         20           1 4         5
##  5 Jacob   108 m         20           1 5         6
##  6 Jacob   108 m         20           2 1         2
##  7 Jacob   108 m         20           2 2         2
##  8 Jacob   108 m         20           2 3         4
##  9 Jacob   108 m         20           2 4         0
## 10 Jacob   108 m         20           2 5         3
## # … with 990 more rows
…
  pivot_longer(
    cols = new_sp_m014:newrel_f65, 
    names_to = "key", 
    values_to = "cases", 
    values_drop_na = TRUE
  ) %>% 
  mutate(
    key = stringr::str_replace(key, "newrel", "new_rel")
  ) %>%
  separate(key, c("new", "var", "sexage")) %>% 
  select(-new, -iso2, -iso3) %>% 
  separate(sexage, c("sex", "age"), sep = 1)
datos_limpios

## # A tibble: 76,046 × 6
##    country      year var   sex   age   cases
##    <chr>       <int> <chr> <chr> <chr> <int>
##  1 Afghanistan  1997 sp    m     014       0
##  2 Afghanistan  1997 sp    m     1524     10
##  3 Afghanistan  1997 sp    m     2534      6
##  4 Afghanistan  1997 sp    m     3544      3
##  5 Afghanistan  1997 sp    m     4554      5
##  6 Afghanistan  1997 sp    m     5564      2
##  7 Afghanistan  1997 sp    m     65        0
##  8 Afghanistan  1997 sp    f     014       5
##  9 Afghanistan  1997 sp    f     1524     38
## 10 Afghanistan  1997 sp    f     2534     36
## # … with 76,036 more rows

Calculamos el número total de casos por países

casos_paises <- datos_limpios %>%
  group_by(country) %>%
  summarise(suma = sum(cases))
casos_paises

## # A tibble: 219 × 2
##    country               suma
##    <chr>                <int>
##  1 Afghanistan         140225
##  2 Albania               5335
##  3 Algeria             128119
##  4 American Samoa          41
##  5 Andorra                103
##  6 Angola              308365
##  7 Anguilla                 2
##  8 Antigua and Barbuda     55
##  9 Argentina           117156
## 10 Armenia              15991
## # … with 209 more rows
…
