Master en Big Data. Fundamentos Matemáticos del Análisis de Datos (FMAD).
…
##  [1] 1 2 3 4 1 2 3 4 1 2 3 4 1 2 3 4

Utilizando la tabla mpg de la librería tidyverse crea una tabla mpg2 que:

contenga las filas en las que la variable class toma el valor pickup.

y las columnas de la tabla original cuyos nombres empiezan por c. No se trata de que las selecciones a mano, por sus nombres. Busca información sobre funciones auxiliares para select en la .

mpg2 = mpg %>%
  filter(mpg$class == "pickup") %>%
  select(starts_with("c"))
mpg2

## # A tibble: 33 × 3
##      cyl   cty class 
##    <int> <int> <chr> 
##  1     6    15 pickup
##  2     6    14 pickup
##  3     6    13 pickup
##  4     6    14 pickup
##  5     8    14 pickup
##  6     8    14 pickup
##  7     8     9 pickup
##  8     8    11 pickup
##  9     8    11 pickup
## 10     8    12 pickup
## # … with 23 more rows
…
census[order(census$pop, decreasing = TRUE), ]

## # A tibble: 50 × 12
##    state       region    pop poplt5 pop5_17 pop18p pop65p popurban medage  death
##    <chr>    <dbl+lbl>  <dbl>  <dbl>   <dbl>  <dbl>  <dbl>    <dbl>  <dbl>  <dbl>
##  1 Califor… 4 [West]  2.37e7 1.71e6 4680558 1.73e7 2.41e6 21607606   29.9 186428
##  2 New York 1 [NE]    1.76e7 1.14e6 3551938 1.29e7 2.16e6 14858068   31.9 171769
##  3 Texas    3 [South] 1.42e7 1.17e6 3137045 9.92e6 1.37e6 11333017   28.2 108019
##  4 Pennsyl… 1 [NE]    1.19e7 7.47e5 2375838 8.74e6 1.53e6  8220851   32.1 123261
##  5 Illinois 2 [N Cnt… 1.14e7 8.42e5 2400796 8.18e6 1.26e6  9518039   29.9 102230
##  6 Ohio     2 [N Cnt… 1.08e7 7.87e5 2307170 7.70e6 1.17e6  7918259   29.9  98268
##  7 Florida  3 [South] 9.75e6 5.70e5 1789412 7.39e6 1.69e6  8212385   34.7 104190
##  8 Michigan 2 [N Cnt… 9.26e6 6.85e5 2066873 6.51e6 9.12e5  6551551   28.8  75102
##  9 New Jer… 1 [NE]    7.36e6 4.63e5 1527572 5.37e6 8.60e5  6557377   32.2  68762
## 10 N. Caro… 3 [South] 5.88e6 4.04e5 1253659 4.22e6 6.03e5  2822852   29.6  48426
## # … with 40 more rows, and 2 more variables: marriage <dbl>, divorce <dbl>

#5.4

matrimonios_exito <- census %>%
  select(state, divorce, marriage) %>%
  mutate(porcentaje_exito = divorce/marriage) %>%
  arrange(porcentaje_exito)
matrimonios_exito

## # A tibble: 50 × 4
##    state         divorce marriage porcentaje_exito
##    <chr>           <dbl>    <dbl>            <dbl>
##  1 Nevada          13842   114333            0.121
##  2 S. Carolina     13595    53915            0.252
##  3 S. Dakota        2811     8800            0.319
##  4 N. Dakota        2142     6094            0.351
##  5 Pennsylvania    34922    93673            0.373
##  6 Hawaii           4438    11856            0.374
##  7 Maryland        17494    46278            0.378
##  8 Massachusetts   17873    46273            0.386
##  9 Virginia        23615    60210            0.392
## 10 Minnesota       15371    37641            0.408
## # … with 40 more rows
…
Gráficas (las adecuadas, a ser posible más de un tipo de gráfico).

Variables categóricas (factores).

Tablas de frecuencia (absolutas y relativas).

Gráficas (diagrama de barras).

Para algunas de las operaciones vamos a eliminar las columnas que tengas algún valor “NA”.

clear_chlsrtl <- chlsrtl[rowSums(is.na(chlsrtl)) == 0,]
clear_chlsrtl

## # A tibble: 394 × 7
##     chol   age gender height weight waist   hip
##    <dbl> <dbl> <chr>   <dbl>  <dbl> <dbl> <dbl>
##  1   203    46 female     62    121    29    38
##  2   165    29 female     64    218    46    48
##  3   228    58 female     61    256    49    57
##  4    78    67 male       67    119    33    38
##  5   249    64 male       68    183    44    41
##  6   248    34 male       71    190    36    42
##  7   195    30 male       69    191    46    49
##  8   227    37 male       59    170    34    39
##  9   177    45 male       69    166    34    40
## 10   263    55 female     63    202    45    50
## # … with 384 more rows
…
Ahora vamos a hacerlo de una forma más sencilla, aplicando la función “Summary” que además muestra nás estadísticas.

summary(chlsrtl$waist)

##    Min. 1st Qu.  Median    Mean 3rd Qu.    Max.    NA's 
##    26.0    33.0    37.0    37.9    41.0    56.0       2

Aunque hayamos tomado esta variable como variable cuantitativa continua, vamos a hacer una tabla de frecuencias absolutas porque como se ha podido ver anteriormente, el rango de la variable no es muy amplio y así probamos.

clear_chlsrtl %>%
  count(waist)

## # A tibble: 29 × 2
##    waist     n
##    <dbl> <int>
##  1    26     2
##  2    28     7
##  3    29    11
##  4    30     9
##  5    31    21
##  6    32    21
##  7    33    28
##  8    34    23
##  9    35    20
## 10    36    25
## # … with 19 more rows
…
Los valores de height y weight están en pulgadas (inches) y libras (pounds) respectivamente. Una libra son \(\approx\) 0.454kg y una pulgada son \(\approx\) 0.0254m. Usa dplyr para convertir esas columnas a metros y kilogramos respectivamente. Las nuevas columnas deben llamarse igual que las originales.

chlsrtl2 <- chlsrtl %>%
  mutate(weight = weight*0.454, height = height*0.0254)
chlsrtl2

## # A tibble: 403 × 7
##     chol   age gender height weight waist   hip
##    <dbl> <dbl> <chr>   <dbl>  <dbl> <dbl> <dbl>
##  1   203    46 female   1.57   54.9    29    38
##  2   165    29 female   1.63   99.0    46    48
##  3   228    58 female   1.55  116.     49    57
##  4    78    67 male     1.70   54.0    33    38
##  5   249    64 male     1.73   83.1    44    41
##  6   248    34 male     1.80   86.3    36    42
##  7   195    30 male     1.75   86.7    46    49
##  8   227    37 male     1.50   77.2    34    39
##  9   177    45 male     1.75   75.4    34    40
## 10   263    55 female   1.60   91.7    45    50
## # … with 393 more rows

Ahora usa esos valores de height y weight para añadir una nueva columna llamada BMI, definida mediante: \[BMI = \dfrac{weight}{height^2}\]

chlsrtl2 <- chlsrtl2 %>%
  mutate(BMI = weight/(height)**2)
chlsrtl2

## # A tibble: 403 × 8
##     chol   age gender height weight waist   hip   BMI
##    <dbl> <dbl> <chr>   <dbl>  <dbl> <dbl> <dbl> <dbl>
##  1   203    46 female   1.57   54.9    29    38  22.2
##  2   165    29 female   1.63   99.0    46    48  37.5
##  3   228    58 female   1.55  116.     49    57  48.4
##  4    78    67 male     1.70   54.0    33    38  18.7
##  5   249    64 male     1.73   83.1    44    41  27.8
##  6   248    34 male     1.80   86.3    36    42  26.5
##  7   195    30 male     1.75   86.7    46    49  28.2
##  8   227    37 male     1.50   77.2    34    39  34.4
##  9   177    45 male     1.75   75.4    34    40  24.5
## 10   263    55 female   1.60   91.7    45    50  35.8
## # … with 393 more rows

(se divide por el cuadrado de la altura).

Crea una nueva columna llamada ageGroup dividiendo la edad en los siguientes tres niveles:

(10,40], (40,70], (70,100]

# A tibble: 403 × 9
    chol   age gender height weight waist   hip   BMI ageGroup
   <dbl> <dbl> <chr>   <dbl>  <dbl> <dbl> <dbl> <dbl> <fct>   
 1   203    46 female   1.57   54.9    29    38  22.2 (40,70] 
 2   165    29 female   1.63   99.0    46    48  37.5 (10,40] 
 3   228    58 female   1.55  116.     49    57  48.4 (40,70] 
 4    78    67 male     1.70   54.0    33    38  18.7 (40,70] 
 5   249    64 male     1.73   83.1    44    41  27.8 (40,70] 
 6   248    34 male     1.80   86.3    36    42  26.5 (10,40] 
 7   195    30 male     1.75   86.7    46    49  28.2 (10,40] 
 8   227    37 male     1.50   77.2    34    39  34.4 (10,40] 
 9   177    45 male     1.75   75.4    34    40  24.5 (40,70] 
10   263    55 female   1.60   91.7    45    50  35.8 (40,70] 
# … with 393 more rows
…
Haz el ejercicio 1 de la Sección 5.2.4 de R4DS.

Lo primero que tenemos que hacer es cargar la librería

library(nycflights13)

Vuelos con un retraso de la llegada de 2 o más horas

flights %>%
  filter(arr_delay >= 120)

## # A tibble: 10,200 × 19
##     year month   day dep_time sched_dep_time dep_delay arr_time sched_arr_time
##    <int> <int> <int>    <int>          <int>     <dbl>    <int>          <int>
##  1  2013     1     1      811            630       101     1047            830
##  2  2013     1     1      848           1835       853     1001           1950
##  3  2013     1     1      957            733       144     1056            853
##  4  2013     1     1     1114            900       134     1447           1222
##  5  2013     1     1     1505           1310       115     1638           1431
##  6  2013     1     1     1525           1340       105     1831           1626
##  7  2013     1     1     1549           1445        64     1912           1656
##  8  2013     1     1     1558           1359       119     1718           1515
##  9  2013     1     1     1732           1630        62     2028           1825
## 10  2013     1     1     1803           1620       103     2008           1750
## # … with 10,190 more rows, and 11 more variables: arr_delay <dbl>,
## #   carrier <chr>, flight <int>, tailnum <chr>, origin <chr>, dest <chr>,
## #   air_time <dbl>, distance <dbl>, hour <dbl>, minute <dbl>, time_hour <dttm>

Volados a Houston

flights %>%
  filter(dest == "IAH" | dest == "HOU")

## # A tibble: 9,313 × 19
##     year month   day dep_time sched_dep_time dep_delay arr_time sched_arr_time
##    <int> <int> <int>    <int>          <int>     <dbl>    <int>          <int>
##  1  2013     1     1      517            515         2      830            819
##  2  2013     1     1      533            529         4      850            830
##  3  2013     1     1      623            627        -4      933            932
##  4  2013     1     1      728            732        -4     1041           1038
##  5  2013     1     1      739            739         0     1104           1038
##  6  2013     1     1      908            908         0     1228           1219
##  7  2013     1     1     1028           1026         2     1350           1339
##  8  2013     1     1     1044           1045        -1     1352           1351
##  9  2013     1     1     1114            900       134     1447           1222
## 10  2013     1     1     1205           1200         5     1503           1505
## # … with 9,303 more rows, and 11 more variables: arr_delay <dbl>,
## #   carrier <chr>, flight <int>, tailnum <chr>, origin <chr>, dest <chr>,
## #   air_time <dbl>, distance <dbl>, hour <dbl>, minute <dbl>, time_hour <dttm>

Operados con United, American o Delta

flights %>%
  filter(carrier %in% c('UA', 'AA', 'DL'))

## # A tibble: 139,504 × 19
##     year month   day dep_time sched_dep_time dep_delay arr_time sched_arr_time
##    <int> <int> <int>    <int>          <int>     <dbl>    <int>          <int>
##  1  2013     1     1      517            515         2      830            819
##  2  2013     1     1      533            529         4      850            830
##  3  2013     1     1      542            540         2      923            850
##  4  2013     1     1      554            600        -6      812            837
##  5  2013     1     1      554            558        -4      740            728
##  6  2013     1     1      558            600        -2      753            745
##  7  2013     1     1      558            600        -2      924            917
##  8  2013     1     1      558            600        -2      923            937
##  9  2013     1     1      559            600        -1      941            910
## 10  2013     1     1      559            600        -1      854            902
## # … with 139,494 more rows, and 11 more variables: arr_delay <dbl>,
## #   carrier <chr>, flight <int>, tailnum <chr>, origin <chr>, dest <chr>,
## #   air_time <dbl>, distance <dbl>, hour <dbl>, minute <dbl>, time_hour <dttm>

Salidos en verano (Julio, Agosto, Septiembre)

flights %>%
  filter(month %in% 7:9)

## # A tibble: 86,326 × 19
##     year month   day dep_time sched_dep_time dep_delay arr_time sched_arr_time
##    <int> <int> <int>    <int>          <int>     <dbl>    <int>          <int>
##  1  2013     7     1        1           2029       212      236           2359
##  2  2013     7     1        2           2359         3      344            344
##  3  2013     7     1       29           2245       104      151              1
##  4  2013     7     1       43           2130       193      322             14
##  5  2013     7     1       44           2150       174      300            100
##  6  2013     7     1       46           2051       235      304           2358
##  7  2013     7     1       48           2001       287      308           2305
##  8  2013     7     1       58           2155       183      335             43
##  9  2013     7     1      100           2146       194      327             30
## 10  2013     7     1      100           2245       135      337            135
## # … with 86,316 more rows, and 11 more variables: arr_delay <dbl>,
## #   carrier <chr>, flight <int>, tailnum <chr>, origin <chr>, dest <chr>,
## #   air_time <dbl>, distance <dbl>, hour <dbl>, minute <dbl>, time_hour <dttm>

Llegaron más de horas tarde pero no salieron tarde

flights %>%
  filter(dep_delay <= 0 & arr_delay > 120)

## # A tibble: 29 × 19
##     year month   day dep_time sched_dep_time dep_delay arr_time sched_arr_time
##    <int> <int> <int>    <int>          <int>     <dbl>    <int>          <int>
##  1  2013     1    27     1419           1420        -1     1754           1550
##  2  2013    10     7     1350           1350         0     1736           1526
##  3  2013    10     7     1357           1359        -2     1858           1654
##  4  2013    10    16      657            700        -3     1258           1056
##  5  2013    11     1      658            700        -2     1329           1015
##  6  2013     3    18     1844           1847        -3       39           2219
##  7  2013     4    17     1635           1640        -5     2049           1845
##  8  2013     4    18      558            600        -2     1149            850
##  9  2013     4    18      655            700        -5     1213            950
## 10  2013     5    22     1827           1830        -3     2217           2010
## # … with 19 more rows, and 11 more variables: arr_delay <dbl>, carrier <chr>,
## #   flight <int>, tailnum <chr>, origin <chr>, dest <chr>, air_time <dbl>,
## #   distance <dbl>, hour <dbl>, minute <dbl>, time_hour <dttm>

Se retrasaron al menos una hora pero recuperaron al menos 30 mins en vuelo

flights %>%
  filter(dep_delay >= 60 & dep_delay - arr_delay >  30)

## # A tibble: 1,844 × 19
##     year month   day dep_time sched_dep_time dep_delay arr_time sched_arr_time
##    <int> <int> <int>    <int>          <int>     <dbl>    <int>          <int>
##  1  2013     1     1     2205           1720       285       46           2040
##  2  2013     1     1     2326           2130       116      131             18
##  3  2013     1     3     1503           1221       162     1803           1555
##  4  2013     1     3     1839           1700        99     2056           1950
##  5  2013     1     3     1850           1745        65     2148           2120
##  6  2013     1     3     1941           1759       102     2246           2139
##  7  2013     1     3     1950           1845        65     2228           2227
##  8  2013     1     3     2015           1915        60     2135           2111
##  9  2013     1     3     2257           2000       177       45           2224
## 10  2013     1     4     1917           1700       137     2135           1950
## # … with 1,834 more rows, and 11 more variables: arr_delay <dbl>,
## #   carrier <chr>, flight <int>, tailnum <chr>, origin <chr>, dest <chr>,
## #   air_time <dbl>, distance <dbl>, hour <dbl>, minute <dbl>, time_hour <dttm>

Salidos entre medianoche y las 6am

flights %>%
  filter(dep_time <=600 | dep_time == 2400)

## # A tibble: 9,373 × 19
##     year month   day dep_time sched_dep_time dep_delay arr_time sched_arr_time
##    <int> <int> <int>    <int>          <int>     <dbl>    <int>          <int>
##  1  2013     1     1      517            515         2      830            819
##  2  2013     1     1      533            529         4      850            830
##  3  2013     1     1      542            540         2      923            850
##  4  2013     1     1      544            545        -1     1004           1022
##  5  2013     1     1      554            600        -6      812            837
##  6  2013     1     1      554            558        -4      740            728
##  7  2013     1     1      555            600        -5      913            854
##  8  2013     1     1      557            600        -3      709            723
##  9  2013     1     1      557            600        -3      838            846
## 10  2013     1     1      558            600        -2      753            745
## # … with 9,363 more rows, and 11 more variables: arr_delay <dbl>,
## #   carrier <chr>, flight <int>, tailnum <chr>, origin <chr>, dest <chr>,
## #   air_time <dbl>, distance <dbl>, hour <dbl>, minute <dbl>, time_hour <dttm>
